Decision Tree
Tuning max_depth
1 0.191
2 0.334
3 0.452
4 0.621
5 0.670
6 0.723
7 0.777
8 0.811
9 0.833
10 0.847
11 0.857
12 0.863
Selected max_depth 11 gives acc of 0.857 on val: 
Training final decision tree
Decision tree confusion matrix:
[[ 907    0    8    6    6   17   14    9    5    8]
 [   0 1083   11   13    8    4    2    3    8    3]
 [  13   20  858   41   15    7   11   21   35   11]
 [   9    4   27  834    6   42    8   31   23   26]
 [   5    8    9    2  870    7    6    5   17   53]
 [  16   15    8   35   14  724   20    7   28   25]
 [  22    4   19    3   21   29  832    3   24    1]
 [   9   10   24   14    7    3    1  905   18   37]
 [  11   12   25   27   24   34   11   11  790   29]
 [   7    7    4   19   38   15    2   17   22  878]]
Metrics
Precision: [0.908 0.931 0.864 0.839 0.862 0.821 0.917 0.894 0.814 0.820] Average: 0.867
Recall: [0.926 0.954 0.831 0.826 0.886 0.812 0.868 0.880 0.811 0.870] Average: 0.866
F1: [0.917 0.943 0.847 0.832 0.874 0.816 0.892 0.887 0.813 0.844] Average: 0.867
Accuracy: 0.8681 

