KNN
Tuning k
1 0.970
3 0.971
5 0.969
7 0.969
9 0.967
Selected k 1 gives acc of 0.970 on val: 
Training final decision tree
KNN confusion matrix:
[[ 972    1    1    0    0    1    4    1    0    0]
 [   0 1130    2    1    1    0    1    0    0    0]
 [  12    4  991    4    0    0    2   18    1    0]
 [   0    1    2  961    1   22    0    8    8    7]
 [   1    6    0    0  941    0    4    5    0   25]
 [   1    2    0   17    2  851    5    1    6    7]
 [   4    2    1    0    2    3  945    0    1    0]
 [   0   13    6    1    2    0    0  995    0   11]
 [   7    0    2   17    6   17    4    5  911    5]
 [   5    5    2    8    9    2    1   13    2  962]]
Metrics
Precision: [0.970 0.971 0.984 0.952 0.976 0.950 0.978 0.951 0.981 0.946] Average: 0.966
Recall: [0.992 0.996 0.960 0.951 0.958 0.954 0.986 0.968 0.935 0.953] Average: 0.965
F1: [0.981 0.983 0.972 0.952 0.967 0.952 0.982 0.959 0.957 0.950] Average: 0.966
Accuracy: 0.9659 

